[
    {
        "nrc_code_en": "AhGaYa",
        "nrc_code_my": "အဂယ",
        "name_my": "အင်ဂျန်းယန်",
        "state_id": "1"
    },
    {
        "nrc_code_en": "BaMaNa",
        "nrc_code_my": "ဗမန",
        "name_my": "ဗန်းမော်",
        "state_id": "1"
    },
    {
        "nrc_code_en": "KhaPhaNa",
        "nrc_code_my": "ခဖန",
        "name_my": "ချီဖွေ",
        "state_id": "1"
    },
    {
        "nrc_code_en": "DaPhaYa",
        "nrc_code_my": "ဒဖယ",
        "name_my": "ဒေါ့ဖုန်းယန်",
        "state_id": "1"
    },
    {
        "nrc_code_en": "HaPaNa",
        "nrc_code_my": "ဟပန",
        "name_my": "ဟိုပင်",
        "state_id": "1"
    },
    {
        "nrc_code_en": "KaMaNa",
        "nrc_code_my": "ကမန",
        "name_my": "ကာမီ",
        "state_id": "1"
    },
    {
        "nrc_code_en": "KhaLaPha",
        "nrc_code_my": "ခလဖ",
        "name_my": "ခေါင်လန်ဖူး",
        "state_id": "1"
    },
    {
        "nrc_code_en": "LaGaNa",
        "nrc_code_my": "လဂန",
        "name_my": "လွယ်ဂျယ်",
        "state_id": "1"
    },
    {
        "nrc_code_en": "MaKhaBa",
        "nrc_code_my": "မခဘ",
        "name_my": "မချမ်းဘော",
        "state_id": "1"
    },
    {
        "nrc_code_en": "MaSaNa",
        "nrc_code_my": "မစန",
        "name_my": "မံစီ",
        "state_id": "1"
    },
    {
        "nrc_code_en": "MaNyaNa",
        "nrc_code_my": "မညန",
        "name_my": "မိုးညင်း",
        "state_id": "1"
    },
    {
        "nrc_code_en": "MaKaTa",
        "nrc_code_my": "မကတ",
        "name_my": "မိုးကောင်း",
        "state_id": "1"
    },
    {
        "nrc_code_en": "MaMaNa",
        "nrc_code_my": "မမန",
        "name_my": "မိုးမောက်",
        "state_id": "1"
    },
    {
        "nrc_code_en": "MaKaNa",
        "nrc_code_my": "မကန",
        "name_my": "မြစ်ကြီးနား",
        "state_id": "1"
    },
    {
        "nrc_code_en": "NaMaNa",
        "nrc_code_my": "နမန",
        "name_my": "နောင်မွန်း",
        "state_id": "1"
    },
    {
        "nrc_code_en": "PhaKaNa",
        "nrc_code_my": "ဖကန",
        "name_my": "ဖားကန့်",
        "state_id": "1"
    },
    {
        "nrc_code_en": "PaTaAh",
        "nrc_code_my": "ပတအ",
        "name_my": "ပူတာအို",
        "state_id": "1"
    },
    {
        "nrc_code_en": "YaKaNa",
        "nrc_code_my": "ရကန",
        "name_my": "ရွှေကူ",
        "state_id": "1"
    },
    {
        "nrc_code_en": "SaBaNa",
        "nrc_code_my": "ဆဘန",
        "name_my": "ဆင်ဘို",
        "state_id": "1"
    },
    {
        "nrc_code_en": "SaLaNa",
        "nrc_code_my": "ဆလန",
        "name_my": "ဆော့လော",
        "state_id": "1"
    },
    {
        "nrc_code_en": "SaPaBa",
        "nrc_code_my": "ဆပဘ",
        "name_my": "ဆွမ်ပရာဘွမ်",
        "state_id": "1"
    },
    {
        "nrc_code_en": "TaNaNa",
        "nrc_code_my": "တနန",
        "name_my": "တနိုင်း",
        "state_id": "1"
    },
    {
        "nrc_code_en": "WaMaNa",
        "nrc_code_my": "ဝမန",
        "name_my": "ဝင်းမော်",
        "state_id": "1"
    },
    {
        "nrc_code_en": "BaLaKha",
        "nrc_code_my": "ဘလခ",
        "name_my": "ဘော်လခဲ",
        "state_id": "2"
    },
    {
        "nrc_code_en": "DaMaSa",
        "nrc_code_my": "ဒမဆ",
        "name_my": "ဒီမောဆိုး",
        "state_id": "2"
    },
    {
        "nrc_code_en": "LaKaNa",
        "nrc_code_my": "လကန",
        "name_my": "လွိုင်ကော်",
        "state_id": "2"
    },
    {
        "nrc_code_en": "MaSaNa",
        "nrc_code_my": "မဆန",
        "name_my": "မယ်ဆည်နန်",
        "state_id": "2"
    },
    {
        "nrc_code_en": "PhaSaNa",
        "nrc_code_my": "ဖဆန",
        "name_my": "ဖားဆောင်း",
        "state_id": "2"
    },
    {
        "nrc_code_en": "PhaYaSa",
        "nrc_code_my": "ဖရဆ",
        "name_my": "ဖရူးဆိုး",
        "state_id": "2"
    },
    {
        "nrc_code_en": "YaTaNa",
        "nrc_code_my": "ရတန",
        "name_my": "ရှားတော်",
        "state_id": "2"
    },
    {
        "nrc_code_en": "LaBaNa",
        "nrc_code_my": "လဘန",
        "name_my": "လှိုင်းဘွဲ့",
        "state_id": "3"
    },
    {
        "nrc_code_en": "KaKaYa",
        "nrc_code_my": "ကကရ",
        "name_my": "ကော့ကရိတ်",
        "state_id": "3"
    },
    {
        "nrc_code_en": "KaSaKa",
        "nrc_code_my": "ကဆက",
        "name_my": "ကြာအင်းဆိပ်ကြီး",
        "state_id": "3"
    },
    {
        "nrc_code_en": "KaDaNa",
        "nrc_code_my": "ကဒန",
        "name_my": "ကျုံဒိုး",
        "state_id": "3"
    },
    {
        "nrc_code_en": "MaWaTa",
        "nrc_code_my": "မဝတ",
        "name_my": "မြဝတီ",
        "state_id": "3"
    },
    {
        "nrc_code_en": "PhaAhNa",
        "nrc_code_my": "ဖအန",
        "name_my": "ဖားအံ",
        "state_id": "3"
    },
    {
        "nrc_code_en": "BaAhNa",
        "nrc_code_my": "ဘအန",
        "name_my": "ဘားအံ",
        "state_id": "3"
    },
    {
        "nrc_code_en": "PhaPaNa",
        "nrc_code_my": "ဖပန",
        "name_my": "ဖျာပွန်",
        "state_id": "3"
    },
    {
        "nrc_code_en": "ThaTaNa",
        "nrc_code_my": "သတန",
        "name_my": "သံတောင်",
        "state_id": "3"
    },
    {
        "nrc_code_en": "HaKhaNa",
        "nrc_code_my": "ဟခန",
        "name_my": "ဟားခါး",
        "state_id": "4"
    },
    {
        "nrc_code_en": "HtaTaLa",
        "nrc_code_my": "ထတလ",
        "name_my": "ထန်တလန်",
        "state_id": "4"
    },
    {
        "nrc_code_en": "KaPaLa",
        "nrc_code_my": "ကပလ",
        "name_my": "ကန်ပက်လက်",
        "state_id": "4"
    },
    {
        "nrc_code_en": "MaTaPa",
        "nrc_code_my": "မတပ",
        "name_my": "မတူပီ",
        "state_id": "4"
    },
    {
        "nrc_code_en": "MaTaNa",
        "nrc_code_my": "မတန",
        "name_my": "မင်းတပ်",
        "state_id": "4"
    },
    {
        "nrc_code_en": "PhaLaNa",
        "nrc_code_my": "ဖလန",
        "name_my": "ဖလမ်း",
        "state_id": "4"
    },
    {
        "nrc_code_en": "PaLaWa",
        "nrc_code_my": "ပလဝ",
        "name_my": "ပလက်ဝ",
        "state_id": "4"
    },
    {
        "nrc_code_en": "TaTaNa",
        "nrc_code_my": "တတန",
        "name_my": "တီးတိန်",
        "state_id": "4"
    },
    {
        "nrc_code_en": "TaZaNa",
        "nrc_code_my": "တဇန",
        "name_my": "တွန်းဇံ",
        "state_id": "4"
    },
    {
        "nrc_code_en": "AhYaTa",
        "nrc_code_my": "အရတ",
        "name_my": "အရာတော်",
        "state_id": "5"
    },
    {
        "nrc_code_en": "BaMaNa",
        "nrc_code_my": "ဗမန",
        "name_my": "ဗန်းမောက်",
        "state_id": "5"
    },
    {
        "nrc_code_en": "BaTaLa",
        "nrc_code_my": "ဘတလ",
        "name_my": "ဘုတလင်",
        "state_id": "5"
    },
    {
        "nrc_code_en": "KhaOuNa",
        "nrc_code_my": "ခဥန",
        "name_my": "ချောင်းဦး",
        "state_id": "5"
    },
    {
        "nrc_code_en": "DaPaYa",
        "nrc_code_my": "ဒပယ",
        "name_my": "ဒီပဲယင်း",
        "state_id": "5"
    },
    {
        "nrc_code_en": "HaMaLa",
        "nrc_code_my": "ဟမလ",
        "name_my": "ဟုမ္မလင်း",
        "state_id": "5"
    },
    {
        "nrc_code_en": "HtaKhaNa",
        "nrc_code_my": "ထခန",
        "name_my": "ထီးချိုင့်",
        "state_id": "5"
    },
    {
        "nrc_code_en": "AhTaNa",
        "nrc_code_my": "အတန",
        "name_my": "အင်းတော်",
        "state_id": "5"
    },
    {
        "nrc_code_en": "KaNaNa",
        "nrc_code_my": "ကနန",
        "name_my": "ကနီ",
        "state_id": "5"
    },
    {
        "nrc_code_en": "KaThaNa",
        "nrc_code_my": "ကသန",
        "name_my": "ကသာ",
        "state_id": "5"
    },
    {
        "nrc_code_en": "KaLaHta",
        "nrc_code_my": "ကလထ",
        "name_my": "ကလေး",
        "state_id": "5"
    },
    {
        "nrc_code_en": "KaLaWa",
        "nrc_code_my": "ကလဝ",
        "name_my": "ကလေးဝ",
        "state_id": "5"
    },
    {
        "nrc_code_en": "KaBaLa",
        "nrc_code_my": "ကဘန",
        "name_my": "ကန့်ဘလူ",
        "state_id": "5"
    },
    {
        "nrc_code_en": "KaLaTa",
        "nrc_code_my": "ကလတ",
        "name_my": "ကောလင်း",
        "state_id": "5"
    },
    {
        "nrc_code_en": "KhaTaNa",
        "nrc_code_my": "ခတန",
        "name_my": "ခန္တီး",
        "state_id": "5"
    },
    {
        "nrc_code_en": "KhaOuTa",
        "nrc_code_my": "ခဥတ",
        "name_my": "ခင်ဦး",
        "state_id": "5"
    },
    {
        "nrc_code_en": "KaLaNa",
        "nrc_code_my": "ကလန",
        "name_my": "ကျွန်းလှ",
        "state_id": "5"
    },
    {
        "nrc_code_en": "MaLaNa",
        "nrc_code_my": "မလန",
        "name_my": "မော်လိုက်",
        "state_id": "5"
    },
    {
        "nrc_code_en": "MaKaNa",
        "nrc_code_my": "မကန",
        "name_my": "မင်းကင်း",
        "state_id": "5"
    },
    {
        "nrc_code_en": "MaYaNa",
        "nrc_code_my": "မရန",
        "name_my": "မုံရွာ",
        "state_id": "5"
    },
    {
        "nrc_code_en": "MaMaNa",
        "nrc_code_my": "မမန",
        "name_my": "မြောင်",
        "state_id": "5"
    },
    {
        "nrc_code_en": "NaYaNa",
        "nrc_code_my": "နယန",
        "name_my": "နန်းယွန်း",
        "state_id": "5"
    },
    {
        "nrc_code_en": "NgaZaNa",
        "nrc_code_my": "ငဇန",
        "name_my": "ငါးန်ဇွန်",
        "state_id": "5"
    },
    {
        "nrc_code_en": "PaLaNa",
        "nrc_code_my": "ပလန",
        "name_my": "ပုလဲ",
        "state_id": "5"
    },
    {
        "nrc_code_en": "PhaPaNa",
        "nrc_code_my": "ဖပန",
        "name_my": "ဖောင်ပျင်း",
        "state_id": "5"
    },
    {
        "nrc_code_en": "PaLanBa",
        "nrc_code_my": "ပလဘ",
        "name_my": "ပင်လယ်ဘူး",
        "state_id": "5"
    },
    {
        "nrc_code_en": "SaKaNa",
        "nrc_code_my": "စကန",
        "name_my": "စစ်ကိုင်း",
        "state_id": "5"
    },
    {
        "nrc_code_en": "SaLaKa",
        "nrc_code_my": "ဆလက",
        "name_my": "ဆားလင်းကြီး",
        "state_id": "5"
    },
    {
        "nrc_code_en": "YaBaNa",
        "nrc_code_my": "ရဘန",
        "name_my": "ရွှေဘို",
        "state_id": "5"
    },
    {
        "nrc_code_en": "TaMaNa",
        "nrc_code_my": "တမန",
        "name_my": "တမူး",
        "state_id": "5"
    },
    {
        "nrc_code_en": "TaSaNa",
        "nrc_code_my": "တဆန",
        "name_my": "တန့်ဆည်",
        "state_id": "5"
    },
    {
        "nrc_code_en": "WaLaNa",
        "nrc_code_my": "ဝလန",
        "name_my": "ဝက်လက်",
        "state_id": "5"
    },
    {
        "nrc_code_en": "WaThaNa",
        "nrc_code_my": "ဝသန",
        "name_my": "ဝမ်းသို",
        "state_id": "5"
    },
    {
        "nrc_code_en": "YaOuNa",
        "nrc_code_my": "ရဥန",
        "name_my": "ရေဦး",
        "state_id": "5"
    },
    {
        "nrc_code_en": "YaMaPa",
        "nrc_code_my": "ယမပ",
        "name_my": "ယင်းမာပင်",
        "state_id": "5"
    },
    {
        "nrc_code_en": "YaThaKa",
        "nrc_code_my": "ရသက",
        "name_my": "ရွာသစ်ကြီး",
        "state_id": "5"
    },
    {
        "nrc_code_en": "BaPaNa",
        "nrc_code_my": "ဘပန",
        "name_my": "ဘုတ်ပြင်း",
        "state_id": "6"
    },
    {
        "nrc_code_en": "HtaWaNa",
        "nrc_code_my": "ထဝန",
        "name_my": "ထားဝယ်",
        "state_id": "6"
    },
    {
        "nrc_code_en": "KaThaNa",
        "nrc_code_my": "ကသန",
        "name_my": "ကော့သောင်း",
        "state_id": "6"
    },
    {
        "nrc_code_en": "KaSaNa",
        "nrc_code_my": "ကစန",
        "name_my": "ကျွန်းစု",
        "state_id": "6"
    },
    {
        "nrc_code_en": "LaLaNa",
        "nrc_code_my": "လလန",
        "name_my": "လောင်းလုံ",
        "state_id": "6"
    },
    {
        "nrc_code_en": "MaMaNa",
        "nrc_code_my": "မမန",
        "name_my": "မြိတ်",
        "state_id": "6"
    },
    {
        "nrc_code_en": "MaAhYa",
        "nrc_code_my": "မအရ",
        "name_my": "မြိတ်အရှေ့",
        "state_id": "6"
    },
    {
        "nrc_code_en": "NgaYaKa",
        "nrc_code_my": "ငရက",
        "name_my": "ငရုတ်ကောင်း",
        "state_id": "6"
    },
    {
        "nrc_code_en": "PaLaNa",
        "nrc_code_my": "ပလန",
        "name_my": "ပုလော",
        "state_id": "6"
    },
    {
        "nrc_code_en": "TaNaTha",
        "nrc_code_my": "တနသ",
        "name_my": "တနသာၤရီ",
        "state_id": "6"
    },
    {
        "nrc_code_en": "TaThaYa",
        "nrc_code_my": "တသရ",
        "name_my": "တနသာၤရီ",
        "state_id": "6"
    },
    {
        "nrc_code_en": "ThaYaKha",
        "nrc_code_my": "သရခ",
        "name_my": "သရက်ချောင်း",
        "state_id": "6"
    },
    {
        "nrc_code_en": "YaPhaNa",
        "nrc_code_my": "ရဖန",
        "name_my": "ရေဖြူ",
        "state_id": "6"
    },
    {
        "nrc_code_en": "AhPhaNa",
        "nrc_code_my": "အဖန",
        "name_my": "အုတ်ဖို",
        "state_id": "7"
    },
    {
        "nrc_code_en": "AhPhaNa",
        "nrc_code_my": "အဖန",
        "name_my": "အုတ်ဖြတ်",
        "state_id": "7"
    },
    {
        "nrc_code_en": "AhTaNa",
        "nrc_code_my": "အတန",
        "name_my": "အုတ်တွင်း",
        "state_id": "7"
    },
    {
        "nrc_code_en": "DaOuNa",
        "nrc_code_my": "ဒဥန",
        "name_my": "ဒိုက်ဦး",
        "state_id": "7"
    },
    {
        "nrc_code_en": "HtaTaPa",
        "nrc_code_my": "ထတပ",
        "name_my": "ထန်းတပင်",
        "state_id": "7"
    },
    {
        "nrc_code_en": "KaTaTa",
        "nrc_code_my": "ကတတ",
        "name_my": "ကေတုမတီ",
        "state_id": "7"
    },
    {
        "nrc_code_en": "KaPaKa",
        "nrc_code_my": "ကပက",
        "name_my": "ကြို့ပင်ကောက်",
        "state_id": "7"
    },
    {
        "nrc_code_en": "KaKaNa",
        "nrc_code_my": "ကကန",
        "name_my": "ကျောက်ကြီး",
        "state_id": "7"
    },
    {
        "nrc_code_en": "KaTaKha",
        "nrc_code_my": "ကတခ",
        "name_my": "ကျောက်တံခါး",
        "state_id": "7"
    },
    {
        "nrc_code_en": "KaKaNa",
        "nrc_code_my": "ကကန",
        "name_my": "ကျောက်ကုန်း",
        "state_id": "7"
    },
    {
        "nrc_code_en": "MaDaNa",
        "nrc_code_my": "မဒန",
        "name_my": "မဒေါက်",
        "state_id": "7"
    },
    {
        "nrc_code_en": "MaLaNa",
        "nrc_code_my": "မလန",
        "name_my": "မင်းလှ",
        "state_id": "7"
    },
    {
        "nrc_code_en": "MaNyaNa",
        "nrc_code_my": "မညန",
        "name_my": "မိုးညို",
        "state_id": "7"
    },
    {
        "nrc_code_en": "NaTaLa",
        "nrc_code_my": "နတလ",
        "name_my": "နတ်တလင်း",
        "state_id": "7"
    },
    {
        "nrc_code_en": "NyaLaPa",
        "nrc_code_my": "ညလပ",
        "name_my": "ညောင်လေးပင်",
        "state_id": "7"
    },
    {
        "nrc_code_en": "PaNaKa",
        "nrc_code_my": "ပနက",
        "name_my": "ပဲနွယ်ကုန်း",
        "state_id": "7"
    },
    {
        "nrc_code_en": "PaKhaNa",
        "nrc_code_my": "ပခန",
        "name_my": "ပဲခူး",
        "state_id": "7"
    },
    {
        "nrc_code_en": "PaTaNa",
        "nrc_code_my": "ပတန",
        "name_my": "ပန်တောင်း",
        "state_id": "7"
    },
    {
        "nrc_code_en": "PaKhaTa",
        "nrc_code_my": "ပခန",
        "name_my": "ပေါက်ခေါင်း",
        "state_id": "7"
    },
    {
        "nrc_code_en": "PaTaTa",
        "nrc_code_my": "ပတတ",
        "name_my": "ပေါင်းတည်",
        "state_id": "7"
    },
    {
        "nrc_code_en": "PhaMaNa",
        "nrc_code_my": "ဖမန",
        "name_my": "ဖြူး",
        "state_id": "7"
    },
    {
        "nrc_code_en": "PaMaNa",
        "nrc_code_my": "ပမန",
        "name_my": "ပြည်",
        "state_id": "7"
    },
    {
        "nrc_code_en": "PaTaSa",
        "nrc_code_my": "ပတစ",
        "name_my": "ပြွန်တဆာ",
        "state_id": "7"
    },
    {
        "nrc_code_en": "YaKaNa",
        "nrc_code_my": "ရကန",
        "name_my": "ရွှေကျင်",
        "state_id": "7"
    },
    {
        "nrc_code_en": "YaTaNa",
        "nrc_code_my": "ရတန",
        "name_my": "ရွှေတောင်",
        "state_id": "7"
    },
    {
        "nrc_code_en": "TaNgaNa",
        "nrc_code_my": "တငန",
        "name_my": "တောင်ငူ",
        "state_id": "7"
    },
    {
        "nrc_code_en": "ThaNaPa",
        "nrc_code_my": "သနပ",
        "name_my": "သနပ်ပင်",
        "state_id": "7"
    },
    {
        "nrc_code_en": "ThaKaNa",
        "nrc_code_my": "သကန",
        "name_my": "သဲကုန်း",
        "state_id": "7"
    },
    {
        "nrc_code_en": "ThaWaTa",
        "nrc_code_my": "သဝတ",
        "name_my": "သာယာဝတီ",
        "state_id": "7"
    },
    {
        "nrc_code_en": "ThaSaNa",
        "nrc_code_my": "သဆန",
        "name_my": "သုံးဆယ်",
        "state_id": "7"
    },
    {
        "nrc_code_en": "WaMaNa",
        "nrc_code_my": "ဝမန",
        "name_my": "ဝေါ",
        "state_id": "7"
    },
    {
        "nrc_code_en": "YaTaYa",
        "nrc_code_my": "ရတရ",
        "name_my": "ရေတာရှည်",
        "state_id": "7"
    },
    {
        "nrc_code_en": "ZaKaNa",
        "nrc_code_my": "ဇကန",
        "name_my": "ဇီးကုန်း",
        "state_id": "7"
    },
    {
        "nrc_code_en": "AhLaNa",
        "nrc_code_my": "အလန",
        "name_my": "အောင်လံ",
        "state_id": "8"
    },
    {
        "nrc_code_en": "KhaMaNa",
        "nrc_code_my": "ခမန",
        "name_my": "ချောက်",
        "state_id": "8"
    },
    {
        "nrc_code_en": "GaGaNa",
        "nrc_code_my": "ဂဂန",
        "name_my": "ဂန့်ဂေါ",
        "state_id": "8"
    },
    {
        "nrc_code_en": "SaPhaNa",
        "nrc_code_my": "ဆဖန",
        "name_my": "ဆိပ်ဖြူ",
        "state_id": "8"
    },
    {
        "nrc_code_en": "SaPaWa",
        "nrc_code_my": "ဆပဝ",
        "name_my": "ဆင်ပေါင်ဝဲ",
        "state_id": "8"
    },
    {
        "nrc_code_en": "HtaLaNa",
        "nrc_code_my": "ထလန",
        "name_my": "ထီးလင်း",
        "state_id": "8"
    },
    {
        "nrc_code_en": "KaMaNa",
        "nrc_code_my": "ကမန",
        "name_my": "ကံမ",
        "state_id": "8"
    },
    {
        "nrc_code_en": "MaKaNa",
        "nrc_code_my": "မကန",
        "name_my": "မကွေး",
        "state_id": "8"
    },
    {
        "nrc_code_en": "MaBaNa",
        "nrc_code_my": "မဘန",
        "name_my": "မင်းဘူး",
        "state_id": "8"
    },
    {
        "nrc_code_en": "MaLaNa",
        "nrc_code_my": "မလန",
        "name_my": "မင်းလှ",
        "state_id": "8"
    },
    {
        "nrc_code_en": "MaTaNa",
        "nrc_code_my": "မတန",
        "name_my": "မင်းတုန်း",
        "state_id": "8"
    },
    {
        "nrc_code_en": "MaMaNa",
        "nrc_code_my": "မမန",
        "name_my": "မြိုင်",
        "state_id": "8"
    },
    {
        "nrc_code_en": "MaHtaNa",
        "nrc_code_my": "မထန",
        "name_my": "မြေထဲ",
        "state_id": "8"
    },
    {
        "nrc_code_en": "MaThaNa",
        "nrc_code_my": "မသန",
        "name_my": "မြို့သစ်",
        "state_id": "8"
    },
    {
        "nrc_code_en": "NaMaNa",
        "nrc_code_my": "နမန",
        "name_my": "နတ်မောက်",
        "state_id": "8"
    },
    {
        "nrc_code_en": "NgaPhaNa",
        "nrc_code_my": "ငဖန",
        "name_my": "ငါးဖယ်",
        "state_id": "8"
    },
    {
        "nrc_code_en": "PaKhaKa",
        "nrc_code_my": "ပခက",
        "name_my": "ပခုက္ကူ",
        "state_id": "8"
    },
    {
        "nrc_code_en": "PaMaNa",
        "nrc_code_my": "ပမန",
        "name_my": "ပေါက်",
        "state_id": "8"
    },
    {
        "nrc_code_en": "PaPhaNa",
        "nrc_code_my": "ပဖန",
        "name_my": "ပွင့်ဖြူ",
        "state_id": "8"
    },
    {
        "nrc_code_en": "SaLaNa",
        "nrc_code_my": "စလန",
        "name_my": "စလင်း",
        "state_id": "8"
    },
    {
        "nrc_code_en": "SaTaYa",
        "nrc_code_my": "စတရ",
        "name_my": "စေတုတ္တရာ",
        "state_id": "8"
    },
    {
        "nrc_code_en": "SaKaNa",
        "nrc_code_my": "စကန",
        "name_my": "စကု",
        "state_id": "8"
    },
    {
        "nrc_code_en": "TaTaKa",
        "nrc_code_my": "တတက",
        "name_my": "တောင်တွင်းကြီး",
        "state_id": "8"
    },
    {
        "nrc_code_en": "ThaYaNa",
        "nrc_code_my": "သရန",
        "name_my": "သရက်",
        "state_id": "8"
    },
    {
        "nrc_code_en": "SaMaNa",
        "nrc_code_my": "ဆမန",
        "name_my": "ဆော",
        "state_id": "8"
    },
    {
        "nrc_code_en": "YaNaKha",
        "nrc_code_my": "ရနခ",
        "name_my": "ရေနံချောင်း",
        "state_id": "8"
    },
    {
        "nrc_code_en": "YaSaKa",
        "nrc_code_my": "ရစက",
        "name_my": "ရေစကြို",
        "state_id": "8"
    },
    {
        "nrc_code_en": "DaKhaTha",
        "nrc_code_my": "ဒခသ",
        "name_my": "ဒက္ခိဏသီရိ",
        "state_id": "9"
    },
    {
        "nrc_code_en": "LaWaNa",
        "nrc_code_my": "လဝန",
        "name_my": "လယ်ဝေး",
        "state_id": "9"
    },
    {
        "nrc_code_en": "OuTaTha",
        "nrc_code_my": "ဥတသ",
        "name_my": "ဥတ္တရသီရိ",
        "state_id": "9"
    },
    {
        "nrc_code_en": "PaBaTha",
        "nrc_code_my": "ပဗသ",
        "name_my": "ပုဗ္ဗသီရိ",
        "state_id": "9"
    },
    {
        "nrc_code_en": "PaMaNa",
        "nrc_code_my": "ပမန",
        "name_my": "ပျဉ်းမနား",
        "state_id": "9"
    },
    {
        "nrc_code_en": "TaKaNa",
        "nrc_code_my": "တကန",
        "name_my": "တပ်ကုန်း",
        "state_id": "9"
    },
    {
        "nrc_code_en": "ZaBaTha",
        "nrc_code_my": "ဇဗသ",
        "name_my": "ဇမ္ဗူသီရိ",
        "state_id": "9"
    },
    {
        "nrc_code_en": "ZaYaTha",
        "nrc_code_my": "ဇယသ",
        "name_my": "ဇေယျာသီရိ",
        "state_id": "9"
    },
    {
        "nrc_code_en": "AhMaYa",
        "nrc_code_my": "အမရ",
        "name_my": "အမရပူရ",
        "state_id": "9"
    },
    {
        "nrc_code_en": "AhMaZa",
        "nrc_code_my": "အမဇ",
        "name_my": "အောင်မြေသာဇံ",
        "state_id": "9"
    },
    {
        "nrc_code_en": "KhaAhZa",
        "nrc_code_my": "ခအစ",
        "name_my": "ချမ်းအေးသာစည်",
        "state_id": "9"
    },
    {
        "nrc_code_en": "KhaMaSa",
        "nrc_code_my": "ခမစ",
        "name_my": "ချမ်းမြသာစည်",
        "state_id": "9"
    },
    {
        "nrc_code_en": "KaPaTa",
        "nrc_code_my": "ကပတ",
        "name_my": "ကျောက်ပန်းတောင်း",
        "state_id": "9"
    },
    {
        "nrc_code_en": "KaSaNa",
        "nrc_code_my": "ကဆန",
        "name_my": "ကျောက်ဆည်",
        "state_id": "9"
    },
    {
        "nrc_code_en": "MaLaNa",
        "nrc_code_my": "မလန",
        "name_my": "မလိူင်",
        "state_id": "9"
    },
    {
        "nrc_code_en": "MaHaMa",
        "nrc_code_my": "မဟမ",
        "name_my": "မဟာအောင်မြေ",
        "state_id": "9"
    },
    {
        "nrc_code_en": "MaNaMa",
        "nrc_code_my": "မနမ",
        "name_my": "မန်းနောက်မြောက်",
        "state_id": "9"
    },
    {
        "nrc_code_en": "MaNaTa",
        "nrc_code_my": "မနတ",
        "name_my": "မန်းနောက်တောင်",
        "state_id": "9"
    },
    {
        "nrc_code_en": "MaYaMa",
        "nrc_code_my": "မရမ",
        "name_my": "မန်းရှေ့မြောက်",
        "state_id": "9"
    },
    {
        "nrc_code_en": "MaYaTa",
        "nrc_code_my": "မရတ",
        "name_my": "မန်းရှေ့တောင်",
        "state_id": "9"
    },
    {
        "nrc_code_en": "MaTaYa",
        "nrc_code_my": "မတရ",
        "name_my": "မတ္တရာ",
        "state_id": "9"
    },
    {
        "nrc_code_en": "MaMaNa",
        "nrc_code_my": "မမန",
        "name_my": "မေမြို့",
        "state_id": "9"
    },
    {
        "nrc_code_en": "MaHtaLa",
        "nrc_code_my": "မထလ",
        "name_my": "မိတ္ထီလာ",
        "state_id": "9"
    },
    {
        "nrc_code_en": "MaKaNa",
        "nrc_code_my": "မကန",
        "name_my": "မိုးကုတ်",
        "state_id": "9"
    },
    {
        "nrc_code_en": "MaKhaNa",
        "nrc_code_my": "မခန",
        "name_my": "မြင်းခြံ",
        "state_id": "9"
    },
    {
        "nrc_code_en": "MaThaNa",
        "nrc_code_my": "မသန",
        "name_my": "မြစ်သား",
        "state_id": "9"
    },
    {
        "nrc_code_en": "NaHtaKa",
        "nrc_code_my": "နထက",
        "name_my": "နွားထိုးကြီး",
        "state_id": "9"
    },
    {
        "nrc_code_en": "NgaTaYa",
        "nrc_code_my": "ငသရ",
        "name_my": "င့ါသရောက်",
        "state_id": "9"
    },
    {
        "nrc_code_en": "NyaOuNa",
        "nrc_code_my": "ညဥန",
        "name_my": "ညောင်ဦး",
        "state_id": "9"
    },
    {
        "nrc_code_en": "PaLaNa",
        "nrc_code_my": "ပလန",
        "name_my": "ပုလိပ်",
        "state_id": "9"
    },
    {
        "nrc_code_en": "PaThaKa",
        "nrc_code_my": "ပသက",
        "name_my": "ပုသိမ်ကြီး",
        "state_id": "9"
    },
    {
        "nrc_code_en": "PaBaNa",
        "nrc_code_my": "ပဖန",
        "name_my": "ပျော်ဖွယ်",
        "state_id": "9"
    },
    {
        "nrc_code_en": "PaKaKha",
        "nrc_code_my": "ပကခ",
        "name_my": "ပြည်ကြီးတံခွန်",
        "state_id": "9"
    },
    {
        "nrc_code_en": "PaOuLa",
        "nrc_code_my": "ပဥလ",
        "name_my": "ပြင်ဦးလွင်",
        "state_id": "9"
    },
    {
        "nrc_code_en": "PaMaNa",
        "nrc_code_my": "ပမန",
        "name_my": "ပျဉ်းမနား",
        "state_id": "9"
    },
    {
        "nrc_code_en": "SaKaTa",
        "nrc_code_my": "စကတ",
        "name_my": "စဉ့်ကိုင်",
        "state_id": "9"
    },
    {
        "nrc_code_en": "SaKaNa",
        "nrc_code_my": "ဆကန",
        "name_my": "စဉ့်ကူး",
        "state_id": "9"
    },
    {
        "nrc_code_en": "TaKaNa",
        "nrc_code_my": "တကန",
        "name_my": "တကောင်း",
        "state_id": "9"
    },
    {
        "nrc_code_en": "TaTaOu",
        "nrc_code_my": "တတဥ",
        "name_my": "တံတားဦး",
        "state_id": "9"
    },
    {
        "nrc_code_en": "TaThaNa",
        "nrc_code_my": "တသန",
        "name_my": "တောင်သာ",
        "state_id": "9"
    },
    {
        "nrc_code_en": "ThaPaKa",
        "nrc_code_my": "သပက",
        "name_my": "သပိတ်ကျင်း",
        "state_id": "9"
    },
    {
        "nrc_code_en": "ThaSaNa",
        "nrc_code_my": "သစန",
        "name_my": "သာစည်",
        "state_id": "9"
    },
    {
        "nrc_code_en": "WaTaNa",
        "nrc_code_my": "ဝတန",
        "name_my": "ဝမ်းတွင်း",
        "state_id": "9"
    },
    {
        "nrc_code_en": "YaMaTha",
        "nrc_code_my": "ရမသ",
        "name_my": "ရမည်းသင်း",
        "state_id": "9"
    },
    {
        "nrc_code_en": "BaLaNa",
        "nrc_code_my": "ဘလန",
        "name_my": "ဘီးလင်း",
        "state_id": "10"
    },
    {
        "nrc_code_en": "KhaSaNa",
        "nrc_code_my": "ခဆန",
        "name_my": "ချောင်းဆုံ",
        "state_id": "10"
    },
    {
        "nrc_code_en": "KaMaYa",
        "nrc_code_my": "ကမရ",
        "name_my": "ကျိုက်မရော",
        "state_id": "10"
    },
    {
        "nrc_code_en": "KaHtaNa",
        "nrc_code_my": "ကထန",
        "name_my": "ကျိုက်ထို",
        "state_id": "10"
    },
    {
        "nrc_code_en": "MaLaMa",
        "nrc_code_my": "မလမ",
        "name_my": "မော်လမြိုင်",
        "state_id": "10"
    },
    {
        "nrc_code_en": "MaDaNa",
        "nrc_code_my": "မဒန",
        "name_my": "မုဒုံ",
        "state_id": "10"
    },
    {
        "nrc_code_en": "PaMaNa",
        "nrc_code_my": "ပမန",
        "name_my": "ပေါင်",
        "state_id": "10"
    },
    {
        "nrc_code_en": "ThaPhaYa",
        "nrc_code_my": "သဖရ",
        "name_my": "သံဖြူဇရပ်",
        "state_id": "10"
    },
    {
        "nrc_code_en": "ThaHtaNa",
        "nrc_code_my": "သထန",
        "name_my": "သထုံ",
        "state_id": "10"
    },
    {
        "nrc_code_en": "KhaZaNa",
        "nrc_code_my": "ခဇန",
        "name_my": "ခေါဇာ",
        "state_id": "10"
    },
    {
        "nrc_code_en": "LaMaNa",
        "nrc_code_my": "လမန",
        "name_my": "လမိုင်း",
        "state_id": "10"
    },
    {
        "nrc_code_en": "YaMaNa",
        "nrc_code_my": "ရမန",
        "name_my": "ရေး",
        "state_id": "10"
    },
    {
        "nrc_code_en": "AaMaNa",
        "nrc_code_my": "အမန",
        "name_my": "အမ်း",
        "state_id": "11"
    },
    {
        "nrc_code_en": "BaThaTa",
        "nrc_code_my": "ဘသတ",
        "name_my": "ဘူးသီးတောင်",
        "state_id": "11"
    },
    {
        "nrc_code_en": "GaMaNa",
        "nrc_code_my": "ဂမန",
        "name_my": "ဂွ",
        "state_id": "11"
    },
    {
        "nrc_code_en": "KaPhaNa",
        "nrc_code_my": "ကဖန",
        "name_my": "ကျောက်ဖြူ",
        "state_id": "11"
    },
    {
        "nrc_code_en": "KaTaNa",
        "nrc_code_my": "ကတန",
        "name_my": "ကျောက်တော်",
        "state_id": "11"
    },
    {
        "nrc_code_en": "MaAhNa",
        "nrc_code_my": "မအန",
        "name_my": "မာန်အောင်",
        "state_id": "11"
    },
    {
        "nrc_code_en": "MaTaNa",
        "nrc_code_my": "မတန",
        "name_my": "မောင်းတော",
        "state_id": "11"
    },
    {
        "nrc_code_en": "MaPaNa",
        "nrc_code_my": "မပန",
        "name_my": "မင်းပြား",
        "state_id": "11"
    },
    {
        "nrc_code_en": "MaOuNa",
        "nrc_code_my": "မဥန",
        "name_my": "မြောက်ဦး",
        "state_id": "11"
    },
    {
        "nrc_code_en": "MaPaTa",
        "nrc_code_my": "မပတ",
        "name_my": "မြေပုံ",
        "state_id": "11"
    },
    {
        "nrc_code_en": "PaTaNa",
        "nrc_code_my": "ပတန",
        "name_my": "ပေါက်တော",
        "state_id": "11"
    },
    {
        "nrc_code_en": "PaNaKa",
        "nrc_code_my": "ပဏက",
        "name_my": "ပုဏ္ဏကျွန်း",
        "state_id": "11"
    },
    {
        "nrc_code_en": "SaTaNa",
        "nrc_code_my": "စတန",
        "name_my": "စစ်တွေ",
        "state_id": "11"
    },
    {
        "nrc_code_en": "TaKaNa",
        "nrc_code_my": "တကန",
        "name_my": "တောင်ကုတ်",
        "state_id": "11"
    },
    {
        "nrc_code_en": "ThaTaNa",
        "nrc_code_my": "သတန",
        "name_my": "သံတွဲ",
        "state_id": "11"
    },
    {
        "nrc_code_en": "YaBaNa",
        "nrc_code_my": "ရဗန",
        "name_my": "ရမ်းဗြဲ",
        "state_id": "11"
    },
    {
        "nrc_code_en": "YaThaTa",
        "nrc_code_my": "ရသတ",
        "name_my": "ရသေ့တောင်",
        "state_id": "11"
    },
    {
        "nrc_code_en": "AaLaNa",
        "nrc_code_my": "အလန",
        "name_my": "အလုံ",
        "state_id": "12"
    },
    {
        "nrc_code_en": "BaHaNa",
        "nrc_code_my": "ဗဟန",
        "name_my": "ဗဟန်း",
        "state_id": "12"
    },
    {
        "nrc_code_en": "BaTaHta",
        "nrc_code_my": "ဗတထ",
        "name_my": "ဗိုလ်တထောင်",
        "state_id": "12"
    },
    {
        "nrc_code_en": "KaKaKa",
        "nrc_code_my": "ကကက",
        "name_my": "ကိုကိုးကျွန်း",
        "state_id": "12"
    },
    {
        "nrc_code_en": "DaGaNa",
        "nrc_code_my": "ဒဂန",
        "name_my": "ဒဂုံ",
        "state_id": "12"
    },
    {
        "nrc_code_en": "DaGaYa",
        "nrc_code_my": "ဒဂရ",
        "name_my": "ဒဂုံမြို့သစ်(အရှေ့ပိုင်း)",
        "state_id": "12"
    },
    {
        "nrc_code_en": "DaGaMa",
        "nrc_code_my": "ဒဂမ",
        "name_my": "ဒဂုံမြို့သစ်(မြောက်ပိုင်း)",
        "state_id": "12"
    },
    {
        "nrc_code_en": "DaSaKa",
        "nrc_code_my": "ဒဆက",
        "name_my": "ဒဂုံမြို့သစ်ဆိပ်ကမ်း",
        "state_id": "12"
    },
    {
        "nrc_code_en": "DaGaTa",
        "nrc_code_my": "ဒဂတ",
        "name_my": "ဒဂုံမြို့သစ်(တောင်ပိုင်း)",
        "state_id": "12"
    },
    {
        "nrc_code_en": "DaLaNa",
        "nrc_code_my": "ဒလန",
        "name_my": "ဒလ",
        "state_id": "12"
    },
    {
        "nrc_code_en": "DaPaNa",
        "nrc_code_my": "ဒပန",
        "name_my": "ဒေါပုံ",
        "state_id": "12"
    },
    {
        "nrc_code_en": "LaMaNa",
        "nrc_code_my": "လမန",
        "name_my": "လှိုင်",
        "state_id": "12"
    },
    {
        "nrc_code_en": "LaThaYa",
        "nrc_code_my": "လသယ",
        "name_my": "လှိုင်သာယာ",
        "state_id": "12"
    },
    {
        "nrc_code_en": "LaKaNa",
        "nrc_code_my": "လကန",
        "name_my": "လှည်းကူး",
        "state_id": "12"
    },
    {
        "nrc_code_en": "MaBaNa",
        "nrc_code_my": "မဘန",
        "name_my": "မှော်ဘီ",
        "state_id": "12"
    },
    {
        "nrc_code_en": "HtaTaPa",
        "nrc_code_my": "ထတပ",
        "name_my": "ထန်းတပင်",
        "state_id": "12"
    },
    {
        "nrc_code_en": "AhSaNa",
        "nrc_code_my": "အစန",
        "name_my": "အင်းစိန်",
        "state_id": "12"
    },
    {
        "nrc_code_en": "KaMaYa",
        "nrc_code_my": "ကမရ",
        "name_my": "ကမာရွတ်",
        "state_id": "12"
    },
    {
        "nrc_code_en": "KaMaNa",
        "nrc_code_my": "ကမန",
        "name_my": "ကော့မှုုး",
        "state_id": "12"
    },
    {
        "nrc_code_en": "KhaYaNa",
        "nrc_code_my": "ခရန",
        "name_my": "ခရမ်း",
        "state_id": "12"
    },
    {
        "nrc_code_en": "KaKhaKa",
        "nrc_code_my": "ကခက",
        "name_my": "ကွမ်းခြံကုန်း",
        "state_id": "12"
    },
    {
        "nrc_code_en": "KaTaTa",
        "nrc_code_my": "ကတတ",
        "name_my": "ကျောက်တံတား",
        "state_id": "12"
    },
    {
        "nrc_code_en": "KaTaNa",
        "nrc_code_my": "ကတန",
        "name_my": "ကျောက်တန်း",
        "state_id": "12"
    },
    {
        "nrc_code_en": "KaMaTa",
        "nrc_code_my": "ကမတ",
        "name_my": "ကြည့်မြင်တိုင်",
        "state_id": "12"
    },
    {
        "nrc_code_en": "LaMata",
        "nrc_code_my": "လမတ",
        "name_my": "လမ်းမတော်",
        "state_id": "12"
    },
    {
        "nrc_code_en": "LaThaNa",
        "nrc_code_my": "လသန",
        "name_my": "လသာ",
        "state_id": "12"
    },
    {
        "nrc_code_en": "MaYaKa",
        "nrc_code_my": "မရက",
        "name_my": "မရမ်းကုန်း",
        "state_id": "12"
    },
    {
        "nrc_code_en": "MaGaTa",
        "nrc_code_my": "မဂတ",
        "name_my": "မင်္ဂလာတောင်ညွှန့်",
        "state_id": "12"
    },
    {
        "nrc_code_en": "MaGaDa",
        "nrc_code_my": "မဂဒ",
        "name_my": "မင်္ဂလာဒုံ",
        "state_id": "12"
    },
    {
        "nrc_code_en": "OuKaMa",
        "nrc_code_my": "ဥကမ",
        "name_my": "မြောက်ဥက္ကလာပ",
        "state_id": "12"
    },
    {
        "nrc_code_en": "PaBaTa",
        "nrc_code_my": "ပဘတ",
        "name_my": "ပန်းဘဲတန်း",
        "state_id": "12"
    },
    {
        "nrc_code_en": "PaZaDa",
        "nrc_code_my": "ပဇတ",
        "name_my": "ပုဇွန်တောင်",
        "state_id": "12"
    },
    {
        "nrc_code_en": "SaKhaNa",
        "nrc_code_my": "စခန",
        "name_my": "စမ်းချောင်း",
        "state_id": "12"
    },
    {
        "nrc_code_en": "SaKakha",
        "nrc_code_my": "ဆကခ",
        "name_my": "ဆိပ်ကြီးခနောင်တို",
        "state_id": "12"
    },
    {
        "nrc_code_en": "SaKaNa",
        "nrc_code_my": "ဆကန",
        "name_my": "ဆိပ်ကမ်း",
        "state_id": "12"
    },
    {
        "nrc_code_en": "YaPaKa",
        "nrc_code_my": "ရပက",
        "name_my": "ရွှေပေါက်ကံ",
        "state_id": "12"
    },
    {
        "nrc_code_en": "YaPaTha",
        "nrc_code_my": "ရပသ",
        "name_my": "ရွှေပြည်သာ",
        "state_id": "12"
    },
    {
        "nrc_code_en": "OuKaTa",
        "nrc_code_my": "ဥကတ",
        "name_my": "တောင်ဥက္ကလာပ",
        "state_id": "12"
    },
    {
        "nrc_code_en": "TaKaNa",
        "nrc_code_my": "တကန",
        "name_my": "တိုက်ကြီး",
        "state_id": "12"
    },
    {
        "nrc_code_en": "TaMaNa",
        "nrc_code_my": "တမန",
        "name_my": "တာမွေ",
        "state_id": "12"
    },
    {
        "nrc_code_en": "ThaKaTa",
        "nrc_code_my": "သကတ",
        "name_my": "သာကေတ",
        "state_id": "12"
    },
    {
        "nrc_code_en": "ThaLaNa",
        "nrc_code_my": "သလန",
        "name_my": "သန်လျင်",
        "state_id": "12"
    },
    {
        "nrc_code_en": "ThaGaKa",
        "nrc_code_my": "သဃက",
        "name_my": "သင်္ဃန်းကျွန်း",
        "state_id": "12"
    },
    {
        "nrc_code_en": "ThaKhaNa",
        "nrc_code_my": "သခန",
        "name_my": "သုံးခွ",
        "state_id": "12"
    },
    {
        "nrc_code_en": "TaTaNa",
        "nrc_code_my": "တတန",
        "name_my": "တွံတေး",
        "state_id": "12"
    },
    {
        "nrc_code_en": "YaKaNa",
        "nrc_code_my": "ရကန",
        "name_my": "ရန်ကင်း",
        "state_id": "12"
    },
    {
        "nrc_code_en": "KhaYaHa",
        "nrc_code_my": "ခရဟ",
        "name_my": "ချင်းရွှေဟော် မြို့နယ်ခွဲ",
        "state_id": "13"
    },
    {
        "nrc_code_en": "HaPaTa",
        "nrc_code_my": "ဟပတ",
        "name_my": "ဟိုပန်",
        "state_id": "13"
    },
    {
        "nrc_code_en": "HaPaNa",
        "nrc_code_my": "ဟပန",
        "name_my": "ဟိုပုံး",
        "state_id": "13"
    },
    {
        "nrc_code_en": "KaLaNa",
        "nrc_code_my": "ကလန",
        "name_my": "ကလော",
        "state_id": "13"
    },
    {
        "nrc_code_en": "KaLaTa",
        "nrc_code_my": "ကလတ",
        "name_my": "ကွမ်းလုံ",
        "state_id": "13"
    },
    {
        "nrc_code_en": "KaHaNa",
        "nrc_code_my": "ကဟန",
        "name_my": "ကွန်ဟိန်း",
        "state_id": "13"
    },
    {
        "nrc_code_en": "KaThaNa",
        "nrc_code_my": "ကသန",
        "name_my": "ကျေးသီး",
        "state_id": "13"
    },
    {
        "nrc_code_en": "KaTaTa",
        "nrc_code_my": "ကတတ",
        "name_my": "ကျိုင်းတောင်း",
        "state_id": "13"
    },
    {
        "nrc_code_en": "KaTaNa",
        "nrc_code_my": "ကတန",
        "name_my": "ကျိုင်းတုံ",
        "state_id": "13"
    },
    {
        "nrc_code_en": "KaMaNa",
        "nrc_code_my": "ကမန",
        "name_my": "ကျောက်မဲ",
        "state_id": "13"
    },
    {
        "nrc_code_en": "KaKhaNa",
        "nrc_code_my": "ကခန",
        "name_my": "ကွတ်ခိုင်",
        "state_id": "13"
    },
    {
        "nrc_code_en": "LaYaNa",
        "nrc_code_my": "လရန",
        "name_my": "လားရှိုး",
        "state_id": "13"
    },
    {
        "nrc_code_en": "LaKaNa",
        "nrc_code_my": "လကန",
        "name_my": "လောက်ကိုင်",
        "state_id": "13"
    },
    {
        "nrc_code_en": "LaKhaTa",
        "nrc_code_my": "လခတ",
        "name_my": "လဲချား",
        "state_id": "13"
    },
    {
        "nrc_code_en": "LaKhaNa",
        "nrc_code_my": "လခန",
        "name_my": "လင်းခေး",
        "state_id": "13"
    },
    {
        "nrc_code_en": "LaLaNa",
        "nrc_code_my": "လလန",
        "name_my": "လွိုင်လင်",
        "state_id": "13"
    },
    {
        "nrc_code_en": "MaBaNa",
        "nrc_code_my": "မဘန",
        "name_my": "မဘိမ်း",
        "state_id": "13"
    },
    {
        "nrc_code_en": "MaKaNa",
        "nrc_code_my": "မကန",
        "name_my": "မိုင်းကိုင်",
        "state_id": "13"
    },
    {
        "nrc_code_en": "MaKhaNa",
        "nrc_code_my": "မခန",
        "name_my": "မိုင်းခတ်",
        "state_id": "13"
    },
    {
        "nrc_code_en": "MaPHaNa",
        "nrc_code_my": "မဖန",
        "name_my": "မိုင်းဖြတ်",
        "state_id": "13"
    },
    {
        "nrc_code_en": "MaPaTa",
        "nrc_code_my": "မပတ",
        "name_my": "မိုင်းပြင်း",
        "state_id": "13"
    },
    {
        "nrc_code_en": "MaSaNa",
        "nrc_code_my": "မဆန",
        "name_my": "မိုင်းဆတ်",
        "state_id": "13"
    },
    {
        "nrc_code_en": "MaYaNa",
        "nrc_code_my": "မရန",
        "name_my": "မိုင်းရှုး",
        "state_id": "13"
    },
    {
        "nrc_code_en": "MaYaTa",
        "nrc_code_my": "မရတ",
        "name_my": "မိုင်းရယ်",
        "state_id": "13"
    },
    {
        "nrc_code_en": "MaTaTa",
        "nrc_code_my": "မတတ",
        "name_my": "မန်တုန်",
        "state_id": "13"
    },
    {
        "nrc_code_en": "MaMaTa",
        "nrc_code_my": "မမတ",
        "name_my": "မိုးမိတ်",
        "state_id": "13"
    },
    {
        "nrc_code_en": "MaNaNa",
        "nrc_code_my": "မနန",
        "name_my": "မိုးနဲ",
        "state_id": "13"
    },
    {
        "nrc_code_en": "MaKaNa",
        "nrc_code_my": "မကန",
        "name_my": "မုန်းကိုး",
        "state_id": "13"
    },
    {
        "nrc_code_en": "MaSaTa",
        "nrc_code_my": "မဆတ",
        "name_my": "မူဆယ်",
        "state_id": "13"
    },
    {
        "nrc_code_en": "NaMaTa",
        "nrc_code_my": "နမတ",
        "name_my": "နမ့်မတူ",
        "state_id": "13"
    },
    {
        "nrc_code_en": "NaKhaNa",
        "nrc_code_my": "နခန",
        "name_my": "နမ့်ခမ်း",
        "state_id": "13"
    },
    {
        "nrc_code_en": "NaSaNa",
        "nrc_code_my": "နဆန",
        "name_my": "နမ့်ဆန်",
        "state_id": "13"
    },
    {
        "nrc_code_en": "NaPaNa",
        "nrc_code_my": "နဖန",
        "name_my": "နမ့်ဖိုင်",
        "state_id": "13"
    },
    {
        "nrc_code_en": "NaKhaTa",
        "nrc_code_my": "နခတ",
        "name_my": "နောင်ချို",
        "state_id": "13"
    },
    {
        "nrc_code_en": "NyaYaNa",
        "nrc_code_my": "ညရန",
        "name_my": "ညောင်ရွှေ",
        "state_id": "13"
    },
    {
        "nrc_code_en": "PhaKhaNa",
        "nrc_code_my": "ဖခန",
        "name_my": "ဖယ်ခုံ",
        "state_id": "13"
    },
    {
        "nrc_code_en": "PaLaNa",
        "nrc_code_my": "ပလန",
        "name_my": "ပင်လုံ",
        "state_id": "13"
    },
    {
        "nrc_code_en": "PaTaYa",
        "nrc_code_my": "ပတရ",
        "name_my": "ပင်းတယ",
        "state_id": "13"
    },
    {
        "nrc_code_en": "SaSaNa",
        "nrc_code_my": "ဆဆန",
        "name_my": "ဆီဆိုင်",
        "state_id": "13"
    },
    {
        "nrc_code_en": "YaNyaNa",
        "nrc_code_my": "ရညန",
        "name_my": "ရွှေညောင်",
        "state_id": "13"
    },
    {
        "nrc_code_en": "TaYaNa",
        "nrc_code_my": "တယန",
        "name_my": "တန့်ယန်း",
        "state_id": "13"
    },
    {
        "nrc_code_en": "TaMaNya",
        "nrc_code_my": "တမည",
        "name_my": "တာမိုးညဲ",
        "state_id": "13"
    },
    {
        "nrc_code_en": "TaKhaLa",
        "nrc_code_my": "တခလ",
        "name_my": "တာချီလိတ်",
        "state_id": "13"
    },
    {
        "nrc_code_en": "TaLaNa",
        "nrc_code_my": "တလန",
        "name_my": "တာလေ",
        "state_id": "13"
    },
    {
        "nrc_code_en": "TaKaNa",
        "nrc_code_my": "တကန",
        "name_my": "တောင်ကြီး",
        "state_id": "13"
    },
    {
        "nrc_code_en": "ThaNaNa",
        "nrc_code_my": "သနန",
        "name_my": "သိန္နီ",
        "state_id": "13"
    },
    {
        "nrc_code_en": "ThaPaNa",
        "nrc_code_my": "သပန",
        "name_my": "သီပေါ",
        "state_id": "13"
    },
    {
        "nrc_code_en": "YaNgaNa",
        "nrc_code_my": "ရငန",
        "name_my": "ရွာငံ",
        "state_id": "13"
    },
    {
        "nrc_code_en": "YaSaNa",
        "nrc_code_my": "ရစန",
        "name_my": "ရပ်စောက်",
        "state_id": "13"
    },
    {
        "nrc_code_en": "BaKaLa",
        "nrc_code_my": "ဘကလ",
        "name_my": "ဘိုကလေး",
        "state_id": "14"
    },
    {
        "nrc_code_en": "DaNaPha",
        "nrc_code_my": "ဓနဖ",
        "name_my": "ဓနုဖြူ",
        "state_id": "14"
    },
    {
        "nrc_code_en": "DaDaYa",
        "nrc_code_my": "ဒဒရ",
        "name_my": "ဒေးဒရဲ",
        "state_id": "14"
    },
    {
        "nrc_code_en": "PaThaYa",
        "nrc_code_my": "ပသရ",
        "name_my": "ပုသိမ်(အရှေ့)",
        "state_id": "14"
    },
    {
        "nrc_code_en": "AhMaNa",
        "nrc_code_my": "အမန",
        "name_my": "အိမ်မဲ",
        "state_id": "14"
    },
    {
        "nrc_code_en": "HaKaKa",
        "nrc_code_my": "ဟကက",
        "name_my": "ဟိုင်းကြီးကျွန်း",
        "state_id": "14"
    },
    {
        "nrc_code_en": "HaThaTa",
        "nrc_code_my": "ဟသတ",
        "name_my": "ဟင်္သာတ",
        "state_id": "14"
    },
    {
        "nrc_code_en": "AhGaPa",
        "nrc_code_my": "အဂပ",
        "name_my": "အင်္ဂပူ",
        "state_id": "14"
    },
    {
        "nrc_code_en": "KaNaNa",
        "nrc_code_my": "ခနန",
        "name_my": "ခနောင်",
        "state_id": "14"
    },
    {
        "nrc_code_en": "KaLaNa",
        "nrc_code_my": "ကလန",
        "name_my": "ကျိုက်လတ်",
        "state_id": "14"
    },
    {
        "nrc_code_en": "KaKhaNa",
        "nrc_code_my": "ကခန",
        "name_my": "ကြံခင်း",
        "state_id": "14"
    },
    {
        "nrc_code_en": "KaKaNa",
        "nrc_code_my": "ကကန",
        "name_my": "ကျောင်းကုန်း",
        "state_id": "14"
    },
    {
        "nrc_code_en": "KaPaNa",
        "nrc_code_my": "ကပန",
        "name_my": "ကျုံပျော်",
        "state_id": "14"
    },
    {
        "nrc_code_en": "LaPaTa",
        "nrc_code_my": "လပတ",
        "name_my": "လပွတ္တာ",
        "state_id": "14"
    },
    {
        "nrc_code_en": "LaMaNa",
        "nrc_code_my": "လမန",
        "name_my": "လေးမျက်နှာ",
        "state_id": "14"
    },
    {
        "nrc_code_en": "MaAhPa",
        "nrc_code_my": "မအပ",
        "name_my": "မအူပင်",
        "state_id": "14"
    },
    {
        "nrc_code_en": "MaMaKa",
        "nrc_code_my": "မမက",
        "name_my": "မော်လမြိုင်ကျွန်း",
        "state_id": "14"
    },
    {
        "nrc_code_en": "MaAhaNa",
        "nrc_code_my": "မအန",
        "name_my": "မြန်အောင်",
        "state_id": "14"
    },
    {
        "nrc_code_en": "MaMaNa",
        "nrc_code_my": "မမန",
        "name_my": "မြောင်းမြ",
        "state_id": "14"
    },
    {
        "nrc_code_en": "NgaPaTa",
        "nrc_code_my": "ငပတ",
        "name_my": "ငပုတော",
        "state_id": "14"
    },
    {
        "nrc_code_en": "NgaThaKha",
        "nrc_code_my": "ငသခ",
        "name_my": "ငါးသိုင်းချောင်း",
        "state_id": "14"
    },
    {
        "nrc_code_en": "NyaTaNa",
        "nrc_code_my": "ညတန",
        "name_my": "ညောင်တုန်း",
        "state_id": "14"
    },
    {
        "nrc_code_en": "PaTaNa",
        "nrc_code_my": "ပတန",
        "name_my": "ပန်းတနော်",
        "state_id": "14"
    },
    {
        "nrc_code_en": "PhaPaNa",
        "nrc_code_my": "ဖပန",
        "name_my": "ဖျာပုံ",
        "state_id": "14"
    },
    {
        "nrc_code_en": "ThaPaNa",
        "nrc_code_my": "သပန",
        "name_my": "သာပေါင်း",
        "state_id": "14"
    },
    {
        "nrc_code_en": "WaKhaMa",
        "nrc_code_my": "ဝခမ",
        "name_my": "ဝါးခယ်မ",
        "state_id": "14"
    },
    {
        "nrc_code_en": "PaThaNa",
        "nrc_code_my": "ပသန",
        "name_my": "ပုသိမ်(အနောက်)",
        "state_id": "14"
    },
    {
        "nrc_code_en": "YaKaNa",
        "nrc_code_my": "ရကန",
        "name_my": "ရေကြည်",
        "state_id": "14"
    },
    {
        "nrc_code_en": "ZaLaNa",
        "nrc_code_my": "ဇလန",
        "name_my": "ဇလွန်",
        "state_id": "14"
    },
    {
        "nrc_code_en": "KaKaHta",
        "nrc_code_my": "ကကထ",
        "name_my": "ကန်ကြီးထောင့်",
        "state_id": "14"
    },
    {
        "nrc_code_en": "KhaMaKa",
        "nrc_code_my": "ခမက",
        "name_my": "ခမောက်ကြီး",
        "state_id": "6"
    },
    {
        "nrc_code_en": "KaMaTa",
        "nrc_code_my": "ကမတ",
        "name_my": "ကာမိုင်း",
        "state_id": "1"
    },
    {
        "nrc_code_en": "KaPaTa",
        "nrc_code_my": "ကပတ",
        "name_my": "ကန်ပိုက်တီ",
        "state_id": "1"
    },
    {
        "nrc_code_en": "MaLaNa",
        "nrc_code_my": "မလန",
        "name_my": "မြို့လှ",
        "state_id": "1"
    },
    {
        "nrc_code_en": "PaNaDa",
        "nrc_code_my": "ပနဒ",
        "name_my": "ပန်နန်းဒင်",
        "state_id": "1"
    },
    {
        "nrc_code_en": "PaWaNa",
        "nrc_code_my": "ပဝန",
        "name_my": "ပန်ဝါ",
        "state_id": "1"
    },
    {
        "nrc_code_en": "SaDaNa",
        "nrc_code_my": "ဆဒန",
        "name_my": "ဆဒုံး",
        "state_id": "1"
    },
    {
        "nrc_code_en": "YaBaYa",
        "nrc_code_my": "ရဘယ",
        "name_my": "ရှင်ဘွေယန်",
        "state_id": "1"
    },
    {
        "nrc_code_en": "MaSaNa",
        "nrc_code_my": "မစန",
        "name_my": "မယ်စဲ့",
        "state_id": "2"
    },
    {
        "nrc_code_en": "YaThaNa",
        "nrc_code_my": "ရသန",
        "name_my": "ရွာသစ်",
        "state_id": "2"
    },
    {
        "nrc_code_en": "BaGaLa",
        "nrc_code_my": "ဘဂလ",
        "name_my": "ဘောဂလိ",
        "state_id": "3"
    },
    {
        "nrc_code_en": "BaThaSa",
        "nrc_code_my": "ဘသဆ",
        "name_my": "ဘုရားသုံးဆူ",
        "state_id": "3"
    },
    {
        "nrc_code_en": "KaMaMa",
        "nrc_code_my": "ကမမ",
        "name_my": "ကမမောင်း",
        "state_id": "3"
    },
    {
        "nrc_code_en": "LaThaNa",
        "nrc_code_my": "လသန",
        "name_my": "လိပ်သို",
        "state_id": "3"
    },
    {
        "nrc_code_en": "SaKaLa",
        "nrc_code_my": "စကလ",
        "name_my": "စုကလိ",
        "state_id": "3"
    },
    {
        "nrc_code_en": "ThaTaKa",
        "nrc_code_my": "သတက",
        "name_my": "သံတောင်ကြီး",
        "state_id": "3"
    },
    {
        "nrc_code_en": "WaLaMa",
        "nrc_code_my": "ဝလမ",
        "name_my": "ဝေါလေမြိုင်",
        "state_id": "3"
    },
    {
        "nrc_code_en": "YaYaTha",
        "nrc_code_my": "ရရသ",
        "name_my": "ရှမ်းရွာသစ်",
        "state_id": "3"
    },
    {
        "nrc_code_en": "KaKhaNa",
        "nrc_code_my": "ကခန",
        "name_my": "ကျီခါး",
        "state_id": "4"
    },
    {
        "nrc_code_en": "SaMaNa",
        "nrc_code_my": "ဆမန",
        "name_my": "ဆမီး",
        "state_id": "4"
    },
    {
        "nrc_code_en": "YaKhaDa",
        "nrc_code_my": "ရခဒ",
        "name_my": "ရိဒ်ခေါဒါရ်",
        "state_id": "4"
    },
    {
        "nrc_code_en": "YaZaNa",
        "nrc_code_my": "ရဇန",
        "name_my": "ရေဇွာ",
        "state_id": "4"
    },
    {
        "nrc_code_en": "DaHaNa",
        "nrc_code_my": "ဒဟန",
        "name_my": "ဒုံဟီး",
        "state_id": "5"
    },
    {
        "nrc_code_en": "SaMaYa",
        "nrc_code_my": "ဆမရ",
        "name_my": "ဆွမ္မရာ",
        "state_id": "5"
    },
    {
        "nrc_code_en": "HtaPaKha",
        "nrc_code_my": "ထပခ",
        "name_my": "ထန်ပါခွေ",
        "state_id": "5"
    },
    {
        "nrc_code_en": "KaMaNa",
        "nrc_code_my": "ကမန",
        "name_my": "ကျောက်မြောင်း",
        "state_id": "5"
    },
    {
        "nrc_code_en": "KhaPaNa",
        "nrc_code_my": "ခပန",
        "name_my": "ခမ်းပတ်",
        "state_id": "5"
    },
    {
        "nrc_code_en": "LaHaNa",
        "nrc_code_my": "လဟန",
        "name_my": "လဟယ်",
        "state_id": "5"
    },
    {
        "nrc_code_en": "LaYaNa",
        "nrc_code_my": "လရန",
        "name_my": "လေရှီး",
        "state_id": "5"
    },
    {
        "nrc_code_en": "MaMaNa",
        "nrc_code_my": "မမတ",
        "name_my": "မြင်းမူ",
        "state_id": "5"
    },
    {
        "nrc_code_en": "MaPaLa",
        "nrc_code_my": "မပလ",
        "name_my": "မိုပိုင်းလွတ်",
        "state_id": "5"
    },
    {
        "nrc_code_en": "MaThaNa",
        "nrc_code_my": "မသန",
        "name_my": "မြို့သစ်",
        "state_id": "5"
    },
    {
        "nrc_code_en": "PaSaNa",
        "nrc_code_my": "ပဆန",
        "name_my": "ပန်ဆောင်",
        "state_id": "5"
    },
    {
        "nrc_code_en": "KaLaAh",
        "nrc_code_my": "ကလအ",
        "name_my": "ကလိန်အောင်",
        "state_id": "6"
    },
    {
        "nrc_code_en": "KaYaYa",
        "nrc_code_my": "ကရရ",
        "name_my": "ကရသူရိ",
        "state_id": "6"
    },
    {
        "nrc_code_en": "MaAhNa",
        "nrc_code_my": "မအန",
        "name_my": "မြိတ်အနောက်",
        "state_id": "6"
    },
    {
        "nrc_code_en": "PaKaMa",
        "nrc_code_my": "ပကမ",
        "name_my": "ပြည်ကြီးမဏ္ဍိုင်",
        "state_id": "6"
    },
    {
        "nrc_code_en": "PaLaTa",
        "nrc_code_my": "ပလတ",
        "name_my": "ပလောက်",
        "state_id": "6"
    },
    {
        "nrc_code_en": "KaWaNa",
        "nrc_code_my": "ကဝန",
        "name_my": "ကဝ",
        "state_id": "7"
    },
    {
        "nrc_code_en": "LaPATa",
        "nrc_code_my": "လပတ",
        "name_my": "လက်ပံတန်း",
        "state_id": "7"
    },
    {
        "nrc_code_en": "PaTaLa",
        "nrc_code_my": "ပတလ",
        "name_my": "ပေါင်းတလည်",
        "state_id": "7"
    },
    {
        "nrc_code_en": "KaHtaNa",
        "nrc_code_my": "ကထန",
        "name_my": "ကျောက်ထု",
        "state_id": "8"
    },
    {
        "nrc_code_en": "NgaZaNa",
        "nrc_code_my": "ငဇန",
        "name_my": "ငါန်းဇွန်",
        "state_id": "9"
    },
    {
        "nrc_code_en": "PaBaNa",
        "nrc_code_my": "ပဘန",
        "name_my": "ပျော်ဘွယ်",
        "state_id": "9"
    },
    {
        "nrc_code_en": "OoTaYa",
        "nrc_code_my": "ဥတသ",
        "name_my": "ဥတ္တရသီရိ",
        "state_id": "9"
    },
    {
        "nrc_code_en": "KaKhaMa",
        "nrc_code_my": "ကခမ",
        "name_my": "ကျိုက္ခမီ",
        "state_id": "10"
    },
    {
        "nrc_code_en": "KaTaLa",
        "nrc_code_my": "ကတလ",
        "name_my": "ကျိန္တလီ",
        "state_id": "11"
    },
    {
        "nrc_code_en": "MaAhTa",
        "nrc_code_my": "မအတ",
        "name_my": "မအီ",
        "state_id": "11"
    },
    {
        "nrc_code_en": "TaPaWa",
        "nrc_code_my": "တပဝ",
        "name_my": "တောင်ပြိုလက်ဝဲ",
        "state_id": "11"
    },
    {
        "nrc_code_en": "AhPaNa",
        "nrc_code_my": "အပန",
        "name_my": "အောင်ပန်း",
        "state_id": "13"
    },
    {
        "nrc_code_en": "AhTaNa",
        "nrc_code_my": "အတန",
        "name_my": "အင်တော",
        "state_id": "13"
    },
    {
        "nrc_code_en": "AhTaYa",
        "nrc_code_my": "အသယ",
        "name_my": "အေးသာယာ",
        "state_id": "13"
    },
    {
        "nrc_code_en": "HaHaNa",
        "nrc_code_my": "ဟဟန",
        "name_my": "ဟဲဟိုး",
        "state_id": "13"
    },
    {
        "nrc_code_en": "HaMaNa",
        "nrc_code_my": "ဟမန",
        "name_my": "ဟိုမိန်း",
        "state_id": "13"
    },
    {
        "nrc_code_en": "KaLaHta",
        "nrc_code_my": "ကလထ",
        "name_my": "ကျိူင်းလပ်",
        "state_id": "13"
    },
    {
        "nrc_code_en": "KaLaNa",
        "nrc_code_my": "ခလန",
        "name_my": "ခိုလမ်",
        "state_id": "13"
    },
    {
        "nrc_code_en": "MaHtaNa",
        "nrc_code_my": "မထန",
        "name_my": "မော်ထိုက်",
        "state_id": "13"
    },
    {
        "nrc_code_en": "MaKhaTa",
        "nrc_code_my": "မခတ",
        "name_my": "မိုင်းခုတ်",
        "state_id": "13"
    },
    {
        "nrc_code_en": "MaNgaNa",
        "nrc_code_my": "မငန",
        "name_my": "မိုင်းငေါ့",
        "state_id": "13"
    },
    {
        "nrc_code_en": "MaPhaHta",
        "nrc_code_my": "မဖထ",
        "name_my": "မိုင်းဖျန်",
        "state_id": "13"
    },
    {
        "nrc_code_en": "NaTaYa",
        "nrc_code_my": "နတရ",
        "name_my": "နောင်တရား",
        "state_id": "13"
    },
    {
        "nrc_code_en": "PaPaKa",
        "nrc_code_my": "ပပက",
        "name_my": "ပုံပါကျင်",
        "state_id": "13"
    },
    {
        "nrc_code_en": "PaWaNa",
        "nrc_code_my": "ပဝန",
        "name_my": "ပန်ဝိုင်",
        "state_id": "13"
    },
    {
        "nrc_code_en": "TaTaNa",
        "nrc_code_my": "တတန",
        "name_my": "တုံတာ",
        "state_id": "13"
    },
    {
        "nrc_code_en": "AhMaTa",
        "nrc_code_my": "အမတ",
        "name_my": "အမာ",
        "state_id": "14"
    },
    {
        "nrc_code_en": "NgaYaKa",
        "nrc_code_my": "ငရက",
        "name_my": "ငရုတ်ကောင်း",
        "state_id": "14"
    },
    {
        "nrc_code_en": "PaSaLa",
        "nrc_code_my": "ပစလ",
        "name_my": "ပြင်စလူ",
        "state_id": "14"
    },
    {
        "nrc_code_en": "YaThaYa",
        "nrc_code_my": "ရသယ",
        "name_my": "ရွှေသောင်ယံ",
        "state_id": "14"
    },
    {
        "nrc_code_en": "KhAaHsa",
        "nrc_code_my": "ခအဇ",
        "name_my": "ချမ်းအေးသာစံ",
        "state_id": "9"
    },
    {
        "nrc_code_en": "NaPaMa",
        "nrc_code_my": "နပမ",
        "name_my": "နေပြည်တော်",
        "state_id": "9"
    },
    {
        "nrc_code_en": "TaTaHta",
        "nrc_code_my": "တတထ",
        "name_my": "တံတား",
        "state_id": "12"
    }
]
